<?xml version="1.0" encoding="UTF-8" standalone="no"?>
<!-- Created with Inkscape (http://www.inkscape.org/) -->

<svg
   width="210mm"
   height="297mm"
   viewBox="0 0 210 297"
   version="1.1"
   id="svg5"
   inkscape:version="1.1.1 (3bf5ae0d25, 2021-09-20)"
   sodipodi:docname="drawing.svg"
   xmlns:inkscape="http://www.inkscape.org/namespaces/inkscape"
   xmlns:sodipodi="http://sodipodi.sourceforge.net/DTD/sodipodi-0.dtd"
   xmlns="http://www.w3.org/2000/svg"
   xmlns:svg="http://www.w3.org/2000/svg">
  <sodipodi:namedview
     id="namedview7"
     pagecolor="#ffffff"
     bordercolor="#666666"
     borderopacity="1.0"
     inkscape:pageshadow="2"
     inkscape:pageopacity="0.0"
     inkscape:pagecheckerboard="false"
     inkscape:document-units="mm"
     showgrid="false"
     inkscape:zoom="0.9267856"
     inkscape:cx="570.79005"
     inkscape:cy="583.19853"
     inkscape:window-width="1920"
     inkscape:window-height="1010"
     inkscape:window-x="0"
     inkscape:window-y="46"
     inkscape:window-maximized="1"
     inkscape:current-layer="layer1" />
  <defs
     id="defs2">
    <marker
       style="overflow:visible;"
       id="Arrow2Mend"
       refX="0.0"
       refY="0.0"
       orient="auto"
       inkscape:stockid="Arrow2Mend"
       inkscape:isstock="true">
      <path
         transform="scale(0.6) rotate(180) translate(0,0)"
         d="M 8.7185878,4.0337352 L -2.2072895,0.016013256 L 8.7185884,-4.0017078 C 6.9730900,-1.6296469 6.9831476,1.6157441 8.7185878,4.0337352 z "
         style="stroke:context-stroke;fill-rule:evenodd;fill:context-stroke;stroke-width:0.62500000;stroke-linejoin:round;"
         id="path10588" />
    </marker>
    <marker
       style="overflow:visible;"
       id="Arrow2Lend"
       refX="0.0"
       refY="0.0"
       orient="auto"
       inkscape:stockid="Arrow2Lend"
       inkscape:isstock="true">
      <path
         transform="scale(1.1) rotate(180) translate(1,0)"
         d="M 8.7185878,4.0337352 L -2.2072895,0.016013256 L 8.7185884,-4.0017078 C 6.9730900,-1.6296469 6.9831476,1.6157441 8.7185878,4.0337352 z "
         style="stroke:context-stroke;fill-rule:evenodd;fill:context-stroke;stroke-width:0.62500000;stroke-linejoin:round;"
         id="path10582" />
    </marker>
    <marker
       style="overflow:visible;"
       id="Arrow1Lend"
       refX="0.0"
       refY="0.0"
       orient="auto"
       inkscape:stockid="Arrow1Lend"
       inkscape:isstock="true">
      <path
         transform="scale(0.8) rotate(180) translate(12.5,0)"
         style="fill-rule:evenodd;fill:context-stroke;stroke:context-stroke;stroke-width:1.0pt;"
         d="M 0.0,0.0 L 5.0,-5.0 L -12.5,0.0 L 5.0,5.0 L 0.0,0.0 z "
         id="path10564" />
    </marker>
  </defs>
  <g
     inkscape:label="Layer 1"
     inkscape:groupmode="layer"
     id="layer1">
    <g
       id="g10960"
       inkscape:export-filename="/home/paolo/Dropbox/Grenoble/Enseignement/R_M1_C2ES_2022/Lecture 2 - Wrangling part 1 - mutate summarize group_by pipe/fig/dplyr.png"
       inkscape:export-xdpi="300"
       inkscape:export-ydpi="300">
      <g
         id="g6031"
         transform="translate(0,-0.16105672)">
        <rect
           style="fill:none;stroke:#0062d4;stroke-width:0.7;stroke-linecap:round;stroke-opacity:1"
           id="rect846"
           width="35.09227"
           height="23.299427"
           x="28.620043"
           y="84.321625"
           ry="4.9804759" />
        <text
           xml:space="preserve"
           style="font-size:6.35px;line-height:1;font-family:sans-serif;letter-spacing:0px;word-spacing:0px;stroke-width:0.264583;stroke:none;stroke-opacity:1;fill:#ffffff;fill-opacity:1"
           x="30.996561"
           y="94.438095"
           id="text2588"><tspan
             sodipodi:role="line"
             id="tspan2586"
             style="stroke-width:0.264583;stroke:none;stroke-opacity:1;fill:#ffffff;fill-opacity:1"
             x="30.996561"
             y="94.438095">data.frame</tspan><tspan
             sodipodi:role="line"
             style="stroke-width:0.264583;stroke:none;stroke-opacity:1;fill:#ffffff;fill-opacity:1"
             x="30.996561"
             y="100.78809"
             id="tspan5464">in memory</tspan></text>
      </g>
      <g
         id="g10930"
         transform="translate(3.1448097,1.1354158)">
        <circle
           style="fill:none;stroke:#72d400;stroke-width:0.7;stroke-linecap:round;stroke-opacity:1"
           id="path2692"
           cx="101.22971"
           cy="94.674866"
           r="24.262016" />
        <text
           xml:space="preserve"
           style="font-size:6.35px;line-height:1;font-family:sans-serif;letter-spacing:0px;word-spacing:0px;stroke-width:0.264583;stroke:none;stroke-opacity:1;fill:#ffffff;fill-opacity:1"
           x="101.21111"
           y="90.594498"
           id="text2588-3"><tspan
             sodipodi:role="line"
             id="tspan2586-6"
             style="text-align:center;text-anchor:middle;stroke-width:0.264583;stroke:none;stroke-opacity:1;fill:#ffffff;fill-opacity:1"
             x="101.21111"
             y="90.594498">dplyr verb:</tspan><tspan
             sodipodi:role="line"
             style="text-align:center;text-anchor:middle;stroke-width:0.264583;stroke:none;stroke-opacity:1;fill:#ffffff;fill-opacity:1"
             x="101.21111"
             y="96.944496"
             id="tspan2890">operations</tspan><tspan
             sodipodi:role="line"
             style="text-align:center;text-anchor:middle;stroke-width:0.264583;stroke:none;stroke-opacity:1;fill:#ffffff;fill-opacity:1"
             x="101.21111"
             y="103.29449"
             id="tspan2892">on data</tspan></text>
      </g>
      <g
         id="g10937"
         transform="translate(0,-0.16105672)">
        <rect
           style="fill:none;stroke:#8b00d4;stroke-width:0.7;stroke-linecap:round;stroke-opacity:1"
           id="rect6033"
           width="35.09227"
           height="23.299427"
           x="145.03673"
           y="84.321625"
           ry="4.9804759" />
        <text
           xml:space="preserve"
           style="font-size:6.35px;line-height:1;font-family:sans-serif;letter-spacing:0px;word-spacing:0px;stroke-width:0.264583;stroke:none;stroke-opacity:1;fill:#ffffff;fill-opacity:1"
           x="162.73944"
           y="94.438095"
           id="text6039"><tspan
             sodipodi:role="line"
             style="text-align:center;text-anchor:middle;stroke-width:0.264583;stroke:none;stroke-opacity:1;fill:#ffffff;fill-opacity:1"
             x="162.73944"
             y="94.438095"
             id="tspan7111">transformed</tspan><tspan
             sodipodi:role="line"
             style="text-align:center;text-anchor:middle;stroke-width:0.264583;stroke:none;stroke-opacity:1;fill:#ffffff;fill-opacity:1"
             x="162.73944"
             y="100.78809"
             id="tspan7113">data.frame</tspan><tspan
             sodipodi:role="line"
             style="stroke-width:0.264583;stroke:none;stroke-opacity:1;fill:#ffffff;fill-opacity:1"
             x="162.73944"
             y="107.13809"
             id="tspan6037" /></text>
      </g>
      <path
         style="fill:none;stroke:#ffffff;stroke-width:1;stroke-linecap:butt;stroke-linejoin:miter;stroke-miterlimit:4;stroke-dasharray:none;stroke-opacity:1;marker-end:url(#Arrow2Mend)"
         d="M 64.579341,95.81989 H 78.099528"
         id="path10559" />
      <path
         style="fill:none;stroke:#ffffff;stroke-width:1;stroke-linecap:butt;stroke-linejoin:miter;stroke-miterlimit:4;stroke-dasharray:none;stroke-opacity:1;marker-end:url(#Arrow2Mend)"
         d="m 129.66684,95.81989 h 13.52019"
         id="path10939" />
    </g>
  </g>
</svg>
